{
    "Anna Knight": "Cody Morris",
    "Tommy Sandridge": "Derek Schulte",
    "Anthony Yu": "David Zhou",
    "Filip Mazurek": "Kelly Sooch",
    "Kevin Murgas": "Sai Nimmagadda",
    "Amy Zhao": "Katherine Lee",
    "Jaya Pokuri": "Aniruddh Prakash",
    "Derek Chan": "Collyn Heier",
    "Daniel Hull": "Benjamin Hoover, Varun Gudapati",
    "Moss Jackson-Atogi": "Tamma Ketsiri",
    "Paige Belliveau": "Gary Chang",
    "Kyle Decker": "Willie Long",
    "Courtney Trutna": "Kristen Slappey",
    "Rachel Van Fleet": "Everardo Villasenor",
    "Maitreyee Mittal": "Jake Son",
    "David Whisler": "Caroline Kittle",
    "Bora Guner": "Alden Harwood",
    "Nia Christian": "Alissa Ebong",
    "Zoe Roecker": "Manish Nair",
    "Rajalekha Rajamahendiran": "Samantha Manzer",
    "Vera Xu": "Ringo Yen",
    "Christina Lai": "Jasmine Lu",
    "Zach Visco": "Mike Duch",
    "Joost Op T Eynde": "Shu Rayaz",
    "Keaton Armentrout": "Leighanne Oh, Lyndsey Garcia"
}